{
  "result": {
    "item": "lycanitesmobs:equipmentpart_woodenhilt"
  },
  "pattern": [
    "   ",
    "SSS",
    "   "
  ],
  "key": {
    "S": {
      "item": "minecraft:stick"
    }
  },
  "type": "minecraft:crafting_shaped"
}